Visualização de Dados - ggplot
…
position = "stack" para barras empilhadas.

position = "fill" para barras empilhadas em percentual.

Em todos os casos, o parâmetro de agrupamento é informado na estética fill. Para tal, precisamos construir uma tabela que reflita aos dados que desejamos. Vamos construir a tabela dos dados e construir alguns gráficos:

#Tabela de dados
data <- car %>% 
  group_by(model_year, origin) %>% 
  summarise(count = n()) %>% 
  mutate(freq = count/sum(count))

data

# A tibble: 39 × 4
# Groups:   model_year [13]
   model_year origin count   freq
        <int> <chr>  <int>  <dbl>
 1         70 europe     5 0.172 
 2         70 japan      2 0.0690
 3         70 usa       22 0.759 
 4         71 europe     4 0.143 
 5         71 japan      4 0.143 
 6         71 usa       20 0.714 
 7         72 europe     5 0.179 
 8         72 japan      5 0.179 
 9         72 usa       18 0.643 
10         73 europe     7 0.175 
# ℹ 29 more rows
…
