Importação de dados - Dados da Web
…
{html_node}
<table class="items">
[1] <thead><tr>\n<th class="zentriert" id="yw1_c0">#</th>\n<th class="" id="y ...
[2] <tbody>\n<tr class="odd">\n<td class="zentriert">1</td>\n<td class=""><ta ...

Como já coletamos os dados da tabela, agora precisamos convertê-la em um formato adequado. Para isso, utilizaremos a função html_table.

#Conversão dos dados em HTML
dados_jogadores <- html_tabela %>% html_table

#Estrutura dos dados
dados_jogadores

# A tibble: 75 × 9
     `#` Jogadores        Idade Nac.  Clube `Valor de mercado` ``    ``    ``   
   <int> <chr>            <lgl> <chr> <chr>              <int> <lgl> <lgl> <chr>
 1     1 Lamine YamalPon… NA    Lami… Pont…                 17 NA    NA    200,…
 2    NA Lamine Yamal     NA    <NA>  <NA>                  NA NA    NA    <NA> 
 3    NA Ponta Direita    NA    <NA>  <NA>                  NA NA    NA    <NA> 
 4     2 Jude Bellingham… NA    Jude… Meia…                 21 NA    NA    180,…
 5    NA Jude Bellingham  NA    <NA>  <NA>                  NA NA    NA    <NA> 
 6    NA Meia Ofensivo    NA    <NA>  <NA>                  NA NA    NA    <NA> 
 7     3 Erling HaalandC… NA    Erli… Cent…                 24 NA    NA    180,…
 8    NA Erling Haaland   NA    <NA>  <NA>                  NA NA    NA    <NA> 
 9    NA Centroavante     NA    <NA>  <NA>                  NA NA    NA    <NA> 
10     4 Kylian MbappéCe… NA    Kyli… Cent…                 26 NA    NA    180,…
# ℹ 65 more rows
…
#Vamos eliminar as linhas repetidas usando a função complete_cases
linhas_completas <- complete.cases(dados_jogadores)
dados_jogadores <- dados_jogadores[linhas_completas, ]

#Correção dos nomes
names(dados_jogadores) <- c("classificacao", "nome", "posicao", "idade", "valor")

#Conversão do valor de mercado de texto para numérico
dados_jogadores$valor <- str_remove(dados_jogadores$valor, ",00 mi. €")
dados_jogadores$valor <- as.numeric(dados_jogadores$valor)

#Resultado final
dados_jogadores

# A tibble: 25 × 5
   classificacao nome              posicao        idade valor
           <int> <chr>             <chr>          <int> <dbl>
 1             1 Lamine Yamal      Ponta Direita     17   200
 2             2 Jude Bellingham   Meia Ofensivo     21   180
 3             3 Erling Haaland    Centroavante      24   180
 4             4 Kylian Mbappé     Centroavante      26   180
 5             5 Vinicius Junior   Ponta Esquerda    24   170
 6             6 Bukayo Saka       Ponta Direita     23   150
 7             7 Pedri             Meia Central      22   140
 8             8 Florian Wirtz     Meia Ofensivo     22   140
 9             9 Jamal Musiala     Meia Ofensivo     22   140
10            10 Federico Valverde Meia Central      26   130
# ℹ 15 more rows
…
